{
  "name": "CVCalendar",
  "version": "1.0.0",
  "summary": "Customised CVCalendar library",
  "description": "Custom library for CVCalendar with week selection",
  "homepage": "https://bitbucket.org/Mayank-Vyas/cvcalendar",
  "license": {
    "type": "MIT",
    "file": "LICENSE"
  },
  "authors": {
    "Mayank Vyas": "mayank.vyas01@nagarro.com"
  },
  "source": {
    "git": "https://bitbucket.org/Mayank-Vyas/cvcalendar",
    "tag": "1.0.0"
  },
  "platforms": {
    "ios": "10.0"
  },
  "source_files": "CVCalendar/*"
}
